…
Now we have got the data from all 7 waves in the same data frame
**all7** in the wide format. Note that the panel is unbalanced, i.e. we
included all people who participated in at least one wave of the survey.
Reshape the data to the long format. The resulting data frame should
have six columns for six variables.

``` r
Long <- all7 %>%
   pivot_longer(a_memorig:g_vote6, names_to = "variable", values_to = "value") %>%
   separate(variable, into = c("wave","variable"), sep = "_", extra = "merge") %>%
   pivot_wider(names_from = variable, values_from = value)
Long
```

    ## # A tibble: 584,234 x 6
    ##        pidp wave  memorig sex_dv age_dv vote6
    ##       <int> <chr>   <int>  <int>  <int> <int>
    ##  1 68001367 a           1      1     39     3
    ##  2 68001367 b          NA     NA     NA    NA
    ##  3 68001367 c          NA     NA     NA    NA
    ##  4 68001367 d          NA     NA     NA    NA
    ##  5 68001367 e          NA     NA     NA    NA
    ##  6 68001367 f          NA     NA     NA    NA
    ##  7 68001367 g          NA     NA     NA    NA
    ##  8 68004087 a           1      1     59     2
    ##  9 68004087 b           1      1     60     2
    ## 10 68004087 c           1      1     61     2
    ## # … with 584,224 more rows
…
``` r
all7NA <- all7 %>%
  na.omit()

Long2 <- Long %>%
        group_by(pidp) %>%
        mutate(wave.no = length(wave)) %>%
        filter(wave.no == 7) %>%
        filter(!is.na(vote6)) %>%
        filter(!is.na(sex_dv))
Long2
```

    ## # A tibble: 103,740 x 8
    ## # Groups:   pidp [14,820]
    ##        pidp wave  memorig sex_dv age_dv vote6 sex    wave.no
    ##       <int> <chr>   <int>  <int>  <int> <int> <chr>    <int>
    ##  1 68004087 a           1      1     59     2 Male         7
    ##  2 68004087 b           1      1     60     2 Male         7
    ##  3 68004087 c           1      1     61     2 Male         7
    ##  4 68004087 d           1      1     62     1 Male         7
    ##  5 68004087 e           1      1     63     2 Male         7
    ##  6 68004087 f           1      1     64     2 Male         7
    ##  7 68004087 g           1      1     65     2 Male         7
    ##  8 68006127 a           1      2     39     4 Female       7
    ##  9 68006127 b           1      2     40     4 Female       7
    ## 10 68006127 c           1      2     41     4 Female       7
    ## # … with 103,730 more rows

2.  Calculate Delta for each person in the data set.

<!-- end list -->

``` r
Delta <- Long2 %>%
        group_by(pidp) %>%
        summarise(Delta = sum(abs(vote6[wave == "a"] - vote6[wave == "b"]), abs(vote6[wave == "b"] - vote6[wave == "c"]), abs(vote6[wave == "c"] - vote6[wave == "d"]), abs(vote6[wave == "d"] - vote6[wave == "e"]), abs(vote6[wave == "e"] - vote6[wave == "f"]), abs(vote6[wave == "f"] - vote6[wave == "g"])))

Delta
```

    ## # A tibble: 14,820 x 2
    ##        pidp Delta
    ##       <int> <int>
    ##  1 68004087     2
    ##  2 68006127     0
    ##  3 68006807     1
    ##  4 68008847     6
    ##  5 68009527     2
    ##  6 68010887     6
    ##  7 68020407     4
    ##  8 68025847     8
    ##  9 68029927     5
    ## 10 68031967     4
    ## # … with 14,810 more rows

``` r
Table <- Long2 %>%
        left_join(Delta, by = "pidp") 
Table
```

    ## # A tibble: 103,740 x 9
    ## # Groups:   pidp [14,820]
    ##        pidp wave  memorig sex_dv age_dv vote6 sex    wave.no Delta
    ##       <int> <chr>   <int>  <int>  <int> <int> <chr>    <int> <int>
    ##  1 68004087 a           1      1     59     2 Male         7     2
    ##  2 68004087 b           1      1     60     2 Male         7     2
    ##  3 68004087 c           1      1     61     2 Male         7     2
    ##  4 68004087 d           1      1     62     1 Male         7     2
    ##  5 68004087 e           1      1     63     2 Male         7     2
    ##  6 68004087 f           1      1     64     2 Male         7     2
    ##  7 68004087 g           1      1     65     2 Male         7     2
    ##  8 68006127 a           1      2     39     4 Female       7     0
    ##  9 68006127 b           1      2     40     4 Female       7     0
    ## 10 68006127 c           1      2     41     4 Female       7     0
    ## # … with 103,730 more rows
…
<!-- end list -->

``` r
Delta1 <- Table %>%
        group_by(age_dv) %>%
        summarise(AvgDelA =
                          mean(Delta[wave == "a"]))
Delta1
```

    ## # A tibble: 87 x 2
    ##    age_dv AvgDelA
    ##     <int>   <dbl>
    ##  1     15    2   
    ##  2     16    2.78
    ##  3     17    2.55
    ##  4     18    2.83
    ##  5     19    2.82
    ##  6     20    2.39
    ##  7     21    3.08
    ##  8     22    2.59
    ##  9     23    2.42
    ## 10     24    2.15
    ## # … with 77 more rows
…
